^C:\USERS\DOME\DOCUMENTS\WALNUTRENDERER\WALNUTRENDERER\WALNUTRENDERER\DEBUG\3DMATH.CU.OBJ|C:\USERS\DOME\DOCUMENTS\WALNUTRENDERER\WALNUTRENDERER\WALNUTRENDERER\DEBUG\CAMERA.CU.OBJ|C:\USERS\DOME\DOCUMENTS\WALNUTRENDERER\WALNUTRENDERER\WALNUTRENDERER\DEBUG\EASYBMP.OBJ|C:\USERS\DOME\DOCUMENTS\WALNUTRENDERER\WALNUTRENDERER\WALNUTRENDERER\DEBUG\IMAGE.OBJ|C:\USERS\DOME\DOCUMENTS\WALNUTRENDERER\WALNUTRENDERER\WALNUTRENDERER\DEBUG\MAIN.CU.OBJ|C:\USERS\DOME\DOCUMENTS\WALNUTRENDERER\WALNUTRENDERER\WALNUTRENDERER\DEBUG\RENDERER.CU.OBJ|C:\USERS\DOME\DOCUMENTS\WALNUTRENDERER\WALNUTRENDERER\WALNUTRENDERER\DEBUG\SHAPE.CU.OBJ|C:\USERS\DOME\DOCUMENTS\WALNUTRENDERER\WALNUTRENDERER\WALNUTRENDERER\DEBUG\TRANSFORM.OBJ|C:\USERS\DOME\DOCUMENTS\WALNUTRENDERER\WALNUTRENDERER\WALNUTRENDERER\DEBUG\WALNUTRENDERER.DEVICE-LINK.OBJ
C:\USERS\DOME\DOCUMENTS\WALNUTRENDERER\WALNUTRENDERER\DEBUG\WALNUTRENDERER.ILK
C:\USERS\DOME\DOCUMENTS\WALNUTRENDERER\WALNUTRENDERER\DEBUG\WALNUTRENDERER.EXE
C:\USERS\DOME\DOCUMENTS\WALNUTRENDERER\WALNUTRENDERER\DEBUG\WALNUTRENDERER.PDB
